%YAML 1.1
%TAG !u! tag:unity3d.com,2011:
--- !u!74 &7400000
AnimationClip:
  m_ObjectHideFlags: 0
  m_CorrespondingSourceObject: {fileID: 0}
  m_PrefabInstance: {fileID: 0}
  m_PrefabAsset: {fileID: 0}
  m_Name: Star
  serializedVersion: 6
  m_Legacy: 0
  m_Compressed: 0
  m_UseHighQualityCurve: 1
  m_RotationCurves: []
  m_CompressedRotationCurves: []
  m_EulerCurves: []
  m_PositionCurves: []
  m_ScaleCurves: []
  m_FloatCurves: []
  m_PPtrCurves:
  - curve:
    - time: 0
      value: {fileID: 21300000, guid: 9ce8d7f751b68a74eba451875dc375a5, type: 3}
    - time: 0.16666667
      value: {fileID: 21300000, guid: 423b7e09bbd085446abbcc14e2b4dc80, type: 3}
    - time: 0.31666666
      value: {fileID: 21300000, guid: 4b28de774e9d8df4ead96a336596de75, type: 3}
    - time: 0.48333332
      value: {fileID: 21300000, guid: 9d2fef83df343f44d85db3d51d58c96d, type: 3}
    - time: 0.6333333
      value: {fileID: 21300000, guid: 024ac0e96d83181408fef4e512a0d9c0, type: 3}
    - time: 0.8
      value: {fileID: 21300000, guid: 171fc686d161f75459212e41dae6a6be, type: 3}
    - time: 0.95
      value: {fileID: 21300000, guid: 0697aebd64fd3dc42bc76da1e104ea89, type: 3}
    - time: 1.1166667
      value: {fileID: 21300000, guid: 1d9cbb9b7dd0268488ffc3bde9d3ce67, type: 3}
    attribute: m_Sprite
    path: 
    classID: 212
    script: {fileID: 0}
  m_SampleRate: 60
  m_WrapMode: 0
  m_Bounds:
    m_Center: {x: 0, y: 0, z: 0}
    m_Extent: {x: 0, y: 0, z: 0}
  m_ClipBindingConstant:
    genericBindings:
    - serializedVersion: 2
      path: 0
      attribute: 0
      script: {fileID: 0}
      typeID: 212
      customType: 23
      isPPtrCurve: 1
    pptrCurveMapping:
    - {fileID: 21300000, guid: 9ce8d7f751b68a74eba451875dc375a5, type: 3}
    - {fileID: 21300000, guid: 423b7e09bbd085446abbcc14e2b4dc80, type: 3}
    - {fileID: 21300000, guid: 4b28de774e9d8df4ead96a336596de75, type: 3}
    - {fileID: 21300000, guid: 9d2fef83df343f44d85db3d51d58c96d, type: 3}
    - {fileID: 21300000, guid: 024ac0e96d83181408fef4e512a0d9c0, type: 3}
    - {fileID: 21300000, guid: 171fc686d161f75459212e41dae6a6be, type: 3}
    - {fileID: 21300000, guid: 0697aebd64fd3dc42bc76da1e104ea89, type: 3}
    - {fileID: 21300000, guid: 1d9cbb9b7dd0268488ffc3bde9d3ce67, type: 3}
  m_AnimationClipSettings:
    serializedVersion: 2
    m_AdditiveReferencePoseClip: {fileID: 0}
    m_AdditiveReferencePoseTime: 0
    m_StartTime: 0
    m_StopTime: 1.1333333
    m_OrientationOffsetY: 0
    m_Level: 0
    m_CycleOffset: 0
    m_HasAdditiveReferencePose: 0
    m_LoopTime: 1
    m_LoopBlend: 0
    m_LoopBlendOrientation: 0
    m_LoopBlendPositionY: 0
    m_LoopBlendPositionXZ: 0
    m_KeepOriginalOrientation: 0
    m_KeepOriginalPositionY: 1
    m_KeepOriginalPositionXZ: 0
    m_HeightFromFeet: 0
    m_Mirror: 0
  m_EditorCurves: []
  m_EulerEditorCurves: []
  m_HasGenericRootTransform: 0
  m_HasMotionFloatCurves: 0
  m_Events: []
