%YAML 1.1
%TAG !u! tag:unity3d.com,2011:
--- !u!74 &7400000
AnimationClip:
  m_ObjectHideFlags: 0
  m_CorrespondingSourceObject: {fileID: 0}
  m_PrefabInstance: {fileID: 0}
  m_PrefabAsset: {fileID: 0}
  m_Name: Star1
  serializedVersion: 6
  m_Legacy: 0
  m_Compressed: 0
  m_UseHighQualityCurve: 1
  m_RotationCurves: []
  m_CompressedRotationCurves: []
  m_EulerCurves: []
  m_PositionCurves: []
  m_ScaleCurves: []
  m_FloatCurves: []
  m_PPtrCurves:
  - curve:
    - time: 0
      value: {fileID: 21300000, guid: df406043b52831948b61c8a3dcc6bb54, type: 3}
    - time: 0.16666667
      value: {fileID: 21300000, guid: f19b871ef5ee66c488e1a420f7af4c64, type: 3}
    - time: 0.31666666
      value: {fileID: 21300000, guid: 31ebfd0b929e3d04a9e42f202fbcc783, type: 3}
    - time: 0.48333332
      value: {fileID: 21300000, guid: 0d8b318a0c1ad6848b2c8686d2a0e485, type: 3}
    - time: 0.6333333
      value: {fileID: 21300000, guid: 275447281fd8b2043be06dd6bf632aa9, type: 3}
    - time: 0.8
      value: {fileID: 21300000, guid: 88d7f215b186bd64394452581344738a, type: 3}
    - time: 0.95
      value: {fileID: 21300000, guid: bd08e336abe906e4da59e9053d20ea81, type: 3}
    - time: 1.1166667
      value: {fileID: 21300000, guid: 923522833d32b9f4499124a30bdddf24, type: 3}
    attribute: m_Sprite
    path: 
    classID: 212
    script: {fileID: 0}
  m_SampleRate: 60
  m_WrapMode: 0
  m_Bounds:
    m_Center: {x: 0, y: 0, z: 0}
    m_Extent: {x: 0, y: 0, z: 0}
  m_ClipBindingConstant:
    genericBindings:
    - serializedVersion: 2
      path: 0
      attribute: 0
      script: {fileID: 0}
      typeID: 212
      customType: 23
      isPPtrCurve: 1
    pptrCurveMapping:
    - {fileID: 21300000, guid: df406043b52831948b61c8a3dcc6bb54, type: 3}
    - {fileID: 21300000, guid: f19b871ef5ee66c488e1a420f7af4c64, type: 3}
    - {fileID: 21300000, guid: 31ebfd0b929e3d04a9e42f202fbcc783, type: 3}
    - {fileID: 21300000, guid: 0d8b318a0c1ad6848b2c8686d2a0e485, type: 3}
    - {fileID: 21300000, guid: 275447281fd8b2043be06dd6bf632aa9, type: 3}
    - {fileID: 21300000, guid: 88d7f215b186bd64394452581344738a, type: 3}
    - {fileID: 21300000, guid: bd08e336abe906e4da59e9053d20ea81, type: 3}
    - {fileID: 21300000, guid: 923522833d32b9f4499124a30bdddf24, type: 3}
  m_AnimationClipSettings:
    serializedVersion: 2
    m_AdditiveReferencePoseClip: {fileID: 0}
    m_AdditiveReferencePoseTime: 0
    m_StartTime: 0
    m_StopTime: 1.1333333
    m_OrientationOffsetY: 0
    m_Level: 0
    m_CycleOffset: 0
    m_HasAdditiveReferencePose: 0
    m_LoopTime: 1
    m_LoopBlend: 0
    m_LoopBlendOrientation: 0
    m_LoopBlendPositionY: 0
    m_LoopBlendPositionXZ: 0
    m_KeepOriginalOrientation: 0
    m_KeepOriginalPositionY: 1
    m_KeepOriginalPositionXZ: 0
    m_HeightFromFeet: 0
    m_Mirror: 0
  m_EditorCurves: []
  m_EulerEditorCurves: []
  m_HasGenericRootTransform: 0
  m_HasMotionFloatCurves: 0
  m_Events: []
