%YAML 1.1
%TAG !u! tag:unity3d.com,2011:
--- !u!74 &7400000
AnimationClip:
  m_ObjectHideFlags: 0
  m_CorrespondingSourceObject: {fileID: 0}
  m_PrefabInstance: {fileID: 0}
  m_PrefabAsset: {fileID: 0}
  m_Name: Star2
  serializedVersion: 6
  m_Legacy: 0
  m_Compressed: 0
  m_UseHighQualityCurve: 1
  m_RotationCurves: []
  m_CompressedRotationCurves: []
  m_EulerCurves: []
  m_PositionCurves: []
  m_ScaleCurves: []
  m_FloatCurves: []
  m_PPtrCurves:
  - curve:
    - time: 0
      value: {fileID: 21300000, guid: 395ae8d304eb4c74bb6d05706dff7d58, type: 3}
    - time: 0.16666667
      value: {fileID: 21300000, guid: 6809ec88d3781e642ab26b9ed61e6582, type: 3}
    - time: 0.31666666
      value: {fileID: 21300000, guid: 8385c7c263e7d994292833ee8c46f350, type: 3}
    - time: 0.48333332
      value: {fileID: 21300000, guid: b2b81eb8368b45d428c500a8c45c8e7c, type: 3}
    - time: 0.6333333
      value: {fileID: 21300000, guid: 6d5007f4f3063674a8aa0f10328a996b, type: 3}
    - time: 0.8
      value: {fileID: 21300000, guid: aa8b1ab13f7e58241908c9186e75e436, type: 3}
    - time: 0.95
      value: {fileID: 21300000, guid: 8f9380ff957771b4084113ca9cfbd3ed, type: 3}
    - time: 1.1166667
      value: {fileID: 21300000, guid: 5e6f49425da0e3947aa3894ca48be045, type: 3}
    attribute: m_Sprite
    path: 
    classID: 212
    script: {fileID: 0}
  m_SampleRate: 60
  m_WrapMode: 0
  m_Bounds:
    m_Center: {x: 0, y: 0, z: 0}
    m_Extent: {x: 0, y: 0, z: 0}
  m_ClipBindingConstant:
    genericBindings:
    - serializedVersion: 2
      path: 0
      attribute: 0
      script: {fileID: 0}
      typeID: 212
      customType: 23
      isPPtrCurve: 1
    pptrCurveMapping:
    - {fileID: 21300000, guid: 395ae8d304eb4c74bb6d05706dff7d58, type: 3}
    - {fileID: 21300000, guid: 6809ec88d3781e642ab26b9ed61e6582, type: 3}
    - {fileID: 21300000, guid: 8385c7c263e7d994292833ee8c46f350, type: 3}
    - {fileID: 21300000, guid: b2b81eb8368b45d428c500a8c45c8e7c, type: 3}
    - {fileID: 21300000, guid: 6d5007f4f3063674a8aa0f10328a996b, type: 3}
    - {fileID: 21300000, guid: aa8b1ab13f7e58241908c9186e75e436, type: 3}
    - {fileID: 21300000, guid: 8f9380ff957771b4084113ca9cfbd3ed, type: 3}
    - {fileID: 21300000, guid: 5e6f49425da0e3947aa3894ca48be045, type: 3}
  m_AnimationClipSettings:
    serializedVersion: 2
    m_AdditiveReferencePoseClip: {fileID: 0}
    m_AdditiveReferencePoseTime: 0
    m_StartTime: 0
    m_StopTime: 1.1333333
    m_OrientationOffsetY: 0
    m_Level: 0
    m_CycleOffset: 0
    m_HasAdditiveReferencePose: 0
    m_LoopTime: 1
    m_LoopBlend: 0
    m_LoopBlendOrientation: 0
    m_LoopBlendPositionY: 0
    m_LoopBlendPositionXZ: 0
    m_KeepOriginalOrientation: 0
    m_KeepOriginalPositionY: 1
    m_KeepOriginalPositionXZ: 0
    m_HeightFromFeet: 0
    m_Mirror: 0
  m_EditorCurves: []
  m_EulerEditorCurves: []
  m_HasGenericRootTransform: 0
  m_HasMotionFloatCurves: 0
  m_Events: []
