%YAML 1.1
%TAG !u! tag:unity3d.com,2011:
--- !u!74 &7400000
AnimationClip:
  m_ObjectHideFlags: 0
  m_CorrespondingSourceObject: {fileID: 0}
  m_PrefabInstance: {fileID: 0}
  m_PrefabAsset: {fileID: 0}
  m_Name: Star
  serializedVersion: 6
  m_Legacy: 0
  m_Compressed: 0
  m_UseHighQualityCurve: 1
  m_RotationCurves: []
  m_CompressedRotationCurves: []
  m_EulerCurves: []
  m_PositionCurves: []
  m_ScaleCurves: []
  m_FloatCurves: []
  m_PPtrCurves:
  - curve:
    - time: 0
      value: {fileID: 21300000, guid: fc020115ce859084189eafe270c53f81, type: 3}
    - time: 0.16666667
      value: {fileID: 21300000, guid: b77b9b272c1edf1448a121be432a9beb, type: 3}
    - time: 0.35
      value: {fileID: 21300000, guid: 6691160b733f03f459fa4861e5f69254, type: 3}
    - time: 0.51666665
      value: {fileID: 21300000, guid: 5f28a790b6db01f4bab24c1944ae47ad, type: 3}
    - time: 0.7
      value: {fileID: 21300000, guid: a31903bd090e9dc44bb79b62b63169c2, type: 3}
    - time: 0.8666667
      value: {fileID: 21300000, guid: 5a46a9b7f1f05d14cb24628069a4d9ed, type: 3}
    - time: 1.05
      value: {fileID: 21300000, guid: d21814a47a1907c4bae87fed92340d70, type: 3}
    - time: 1.2166667
      value: {fileID: 21300000, guid: 76170cd0bdb30154b93c2ec880c07951, type: 3}
    attribute: m_Sprite
    path: 
    classID: 212
    script: {fileID: 0}
  m_SampleRate: 60
  m_WrapMode: 0
  m_Bounds:
    m_Center: {x: 0, y: 0, z: 0}
    m_Extent: {x: 0, y: 0, z: 0}
  m_ClipBindingConstant:
    genericBindings:
    - serializedVersion: 2
      path: 0
      attribute: 0
      script: {fileID: 0}
      typeID: 212
      customType: 23
      isPPtrCurve: 1
    pptrCurveMapping:
    - {fileID: 21300000, guid: fc020115ce859084189eafe270c53f81, type: 3}
    - {fileID: 21300000, guid: b77b9b272c1edf1448a121be432a9beb, type: 3}
    - {fileID: 21300000, guid: 6691160b733f03f459fa4861e5f69254, type: 3}
    - {fileID: 21300000, guid: 5f28a790b6db01f4bab24c1944ae47ad, type: 3}
    - {fileID: 21300000, guid: a31903bd090e9dc44bb79b62b63169c2, type: 3}
    - {fileID: 21300000, guid: 5a46a9b7f1f05d14cb24628069a4d9ed, type: 3}
    - {fileID: 21300000, guid: d21814a47a1907c4bae87fed92340d70, type: 3}
    - {fileID: 21300000, guid: 76170cd0bdb30154b93c2ec880c07951, type: 3}
  m_AnimationClipSettings:
    serializedVersion: 2
    m_AdditiveReferencePoseClip: {fileID: 0}
    m_AdditiveReferencePoseTime: 0
    m_StartTime: 0
    m_StopTime: 1.2333333
    m_OrientationOffsetY: 0
    m_Level: 0
    m_CycleOffset: 0
    m_HasAdditiveReferencePose: 0
    m_LoopTime: 1
    m_LoopBlend: 0
    m_LoopBlendOrientation: 0
    m_LoopBlendPositionY: 0
    m_LoopBlendPositionXZ: 0
    m_KeepOriginalOrientation: 0
    m_KeepOriginalPositionY: 1
    m_KeepOriginalPositionXZ: 0
    m_HeightFromFeet: 0
    m_Mirror: 0
  m_EditorCurves: []
  m_EulerEditorCurves: []
  m_HasGenericRootTransform: 0
  m_HasMotionFloatCurves: 0
  m_Events: []
