%YAML 1.1
%TAG !u! tag:unity3d.com,2011:
--- !u!74 &7400000
AnimationClip:
  m_ObjectHideFlags: 0
  m_CorrespondingSourceObject: {fileID: 0}
  m_PrefabInstance: {fileID: 0}
  m_PrefabAsset: {fileID: 0}
  m_Name: Star
  serializedVersion: 6
  m_Legacy: 0
  m_Compressed: 0
  m_UseHighQualityCurve: 1
  m_RotationCurves: []
  m_CompressedRotationCurves: []
  m_EulerCurves: []
  m_PositionCurves: []
  m_ScaleCurves: []
  m_FloatCurves: []
  m_PPtrCurves:
  - curve:
    - time: 0
      value: {fileID: 21300000, guid: 7977c56651fae7147aaf5f52da5af8b3, type: 3}
    - time: 0.16666667
      value: {fileID: 21300000, guid: 8d3589cbfa203dd4ea7786c4529e0cef, type: 3}
    - time: 0.31666666
      value: {fileID: 21300000, guid: aa57995ebbe1d6a4c92c8713a991c9f4, type: 3}
    - time: 0.48333332
      value: {fileID: 21300000, guid: 77dabd45a2b7ace4c87c2d0b90896281, type: 3}
    - time: 0.6333333
      value: {fileID: 21300000, guid: f272b3993c91e74408d4921f0a8aa1ea, type: 3}
    - time: 0.8
      value: {fileID: 21300000, guid: 948efbb7673df494f823f0705fb4ed74, type: 3}
    - time: 0.95
      value: {fileID: 21300000, guid: 94b0b122b2d48cd439391402d22d6527, type: 3}
    - time: 1.1166667
      value: {fileID: 21300000, guid: b253a52404846a74ab020c811adc8da6, type: 3}
    attribute: m_Sprite
    path: 
    classID: 212
    script: {fileID: 0}
  m_SampleRate: 60
  m_WrapMode: 0
  m_Bounds:
    m_Center: {x: 0, y: 0, z: 0}
    m_Extent: {x: 0, y: 0, z: 0}
  m_ClipBindingConstant:
    genericBindings:
    - serializedVersion: 2
      path: 0
      attribute: 0
      script: {fileID: 0}
      typeID: 212
      customType: 23
      isPPtrCurve: 1
    pptrCurveMapping:
    - {fileID: 21300000, guid: 7977c56651fae7147aaf5f52da5af8b3, type: 3}
    - {fileID: 21300000, guid: 8d3589cbfa203dd4ea7786c4529e0cef, type: 3}
    - {fileID: 21300000, guid: aa57995ebbe1d6a4c92c8713a991c9f4, type: 3}
    - {fileID: 21300000, guid: 77dabd45a2b7ace4c87c2d0b90896281, type: 3}
    - {fileID: 21300000, guid: f272b3993c91e74408d4921f0a8aa1ea, type: 3}
    - {fileID: 21300000, guid: 948efbb7673df494f823f0705fb4ed74, type: 3}
    - {fileID: 21300000, guid: 94b0b122b2d48cd439391402d22d6527, type: 3}
    - {fileID: 21300000, guid: b253a52404846a74ab020c811adc8da6, type: 3}
  m_AnimationClipSettings:
    serializedVersion: 2
    m_AdditiveReferencePoseClip: {fileID: 0}
    m_AdditiveReferencePoseTime: 0
    m_StartTime: 0
    m_StopTime: 1.1333333
    m_OrientationOffsetY: 0
    m_Level: 0
    m_CycleOffset: 0
    m_HasAdditiveReferencePose: 0
    m_LoopTime: 1
    m_LoopBlend: 0
    m_LoopBlendOrientation: 0
    m_LoopBlendPositionY: 0
    m_LoopBlendPositionXZ: 0
    m_KeepOriginalOrientation: 0
    m_KeepOriginalPositionY: 1
    m_KeepOriginalPositionXZ: 0
    m_HeightFromFeet: 0
    m_Mirror: 0
  m_EditorCurves: []
  m_EulerEditorCurves: []
  m_HasGenericRootTransform: 0
  m_HasMotionFloatCurves: 0
  m_Events: []
