%YAML 1.1
%TAG !u! tag:unity3d.com,2011:
--- !u!114 &11400000
MonoBehaviour:
  m_ObjectHideFlags: 0
  m_CorrespondingSourceObject: {fileID: 0}
  m_PrefabInstance: {fileID: 0}
  m_PrefabAsset: {fileID: 0}
  m_GameObject: {fileID: 0}
  m_Enabled: 1
  m_EditorHideFlags: 0
  m_Script: {fileID: 11500000, guid: 362af01cc92033448ab3f4b414d4895c, type: 3}
  m_Name: Drawing
  m_EditorClassIdentifier: 
  ImageLanguage:
  - {fileID: 21300000, guid: 1e7f58bd7492dae4bb70be318fdef11c, type: 3}
  - {fileID: 21300000, guid: b8759b0c9be3d974caf0a464cc9be351, type: 3}
  - {fileID: 21300000, guid: b8759b0c9be3d974caf0a464cc9be351, type: 3}
  PressImage:
  - {fileID: 21300000, guid: 1e7f58bd7492dae4bb70be318fdef11c, type: 3}
  - {fileID: 21300000, guid: b8759b0c9be3d974caf0a464cc9be351, type: 3}
  - {fileID: 21300000, guid: b8759b0c9be3d974caf0a464cc9be351, type: 3}
  Text: []
