%YAML 1.1
%TAG !u! tag:unity3d.com,2011:
--- !u!114 &11400000
MonoBehaviour:
  m_ObjectHideFlags: 0
  m_CorrespondingSourceObject: {fileID: 0}
  m_PrefabInstance: {fileID: 0}
  m_PrefabAsset: {fileID: 0}
  m_GameObject: {fileID: 0}
  m_Enabled: 1
  m_EditorHideFlags: 0
  m_Script: {fileID: 11500000, guid: 362af01cc92033448ab3f4b414d4895c, type: 3}
  m_Name: Howtoplay
  m_EditorClassIdentifier: 
  ImageLanguage:
  - {fileID: 21300000, guid: 07d4aaa04f8aaaa43a6315caba7b6154, type: 3}
  - {fileID: 21300000, guid: ab6d1654e27bc6c4bbd87697167dcf4b, type: 3}
  - {fileID: 21300000, guid: e5379a2fbc4dc864eb61cd51c15bfe5e, type: 3}
