%YAML 1.1
%TAG !u! tag:unity3d.com,2011:
--- !u!114 &11400000
MonoBehaviour:
  m_ObjectHideFlags: 0
  m_CorrespondingSourceObject: {fileID: 0}
  m_PrefabInstance: {fileID: 0}
  m_PrefabAsset: {fileID: 0}
  m_GameObject: {fileID: 0}
  m_Enabled: 1
  m_EditorHideFlags: 0
  m_Script: {fileID: 11500000, guid: 362af01cc92033448ab3f4b414d4895c, type: 3}
  m_Name: Straight
  m_EditorClassIdentifier: 
  ImageLanguage:
  - {fileID: 21300000, guid: a7b83403788314845a1dcd2c56692037, type: 3}
  - {fileID: 21300000, guid: 311678dfe751b4d41acc099f7c517266, type: 3}
  - {fileID: 21300000, guid: 66994eb29dfec794a91f42f9dd3b0827, type: 3}
